…
 # B. Data read with "read_csv" from tidyverse

# A tibble: 34,786 x 13
   record_id month   day  year plot_id species_id   sex hindfoot_length weight   genus
       <int> <int> <int> <int>   <int>      <chr> <chr>           <int>  <int>   <chr>
 1         1     7    16  1977       2         NL     M              32     NA Neotoma
 2        72     8    19  1977       2         NL     M              31     NA Neotoma
 3       224     9    13  1977       2         NL  <NA>              NA     NA Neotoma
 4       266    10    16  1977       2         NL  <NA>              NA     NA Neotoma
 5       349    11    12  1977       2         NL  <NA>              NA     NA Neotoma
 6       363    11    12  1977       2         NL  <NA>              NA     NA Neotoma
 7       435    12    10  1977       2         NL  <NA>              NA     NA Neotoma
 8       506     1     8  1978       2         NL  <NA>              NA     NA Neotoma
 9       588     2    18  1978       2         NL     M              NA    218 Neotoma
10       661     3    11  1978       2         NL  <NA>              NA     NA Neotoma
# ... with 34,776 more rows, and 3 more variables: species <chr>, taxa <chr>,
#   plot_type <chr>
…
