…
# With the group_by and summarize function from tidyverse

# A tibble: 26 x 2
              genus mean_weight
             <fctr>       <dbl>
 1       Ammodramus         NaN
 2 Ammospermophilus         NaN
 3       Amphispiza         NaN
 4          Baiomys  0.00860000
 5      Calamospiza         NaN
 6       Callipepla         NaN
 7  Campylorhynchus         NaN
 8      Chaetodipus  0.02417933
 9    Cnemidophorus         NaN
10         Crotalus         NaN
# ... with 16 more rows
