Manipulating data in R
…
---
# Exploring your data

```r
# libs ----
library(tidyverse)

# data ----
mydata <- read_csv("Exercise/data/Survey_data_clean.csv")

mydata
```

```
## # A tibble: 37 x 8
##    Species  Plot   Sex Weight  Year Month   Day Weight_Notes
##      <chr> <int> <chr>  <int> <int> <int> <int>        <chr>
##  1      DM     2     F     NA  2013     7    16         <NA>
##  2      DM     7     M     33  2013     7    16         <NA>
##  3      DM     3     M     NA  2013     7    16         <NA>
##  4      DM     1     M     NA  2013     7    16         <NA>
##  5      DM     3     M     40  2013     7    18         <NA>
##  6      DM     7     M     48  2013     7    18         <NA>
##  7      DM     4     F     29  2013     7    18         <NA>
##  8      DM     4     F     46  2013     7    18         <NA>
##  9      DM     7     M     36  2013     7    18         <NA>
## 10      DM     7     F     35  2013     7    18         <NA>
## # ... with 27 more rows
```
…
